{
  "project_info": {
    "project_number": "499764016246",
    "project_id": "isis3510-20-flutter-sprint3",
    "storage_bucket": "isis3510-20-flutter-sprint3.appspot.com"
  },
  "client": [
    {
      "client_info": {
        "mobilesdk_app_id": "1:499764016246:android:ac40c40659599bfeb25b57",
        "android_client_info": {
          "package_name": "com.example.mentor"
        }
      },
      "oauth_client": [
        {
          "client_id": "499764016246-h28irhungeq1fqequ04c7v8ispgngntk.apps.googleusercontent.com",
          "client_type": 3
        }
      ],
      "api_key": [
        {
          "current_key": "AIzaSyA9gRbGyAKVurpL1LcqKLt3JhsqBAbgJi0"
        }
      ],
      "services": {
        "appinvite_service": {
          "other_platform_oauth_client": [
            {
              "client_id": "499764016246-h28irhungeq1fqequ04c7v8ispgngntk.apps.googleusercontent.com",
              "client_type": 3
            }
          ]
        }
      }
    }
  ],
  "configuration_version": "1"
}